asthma_data
…
I excluded 2021 since the brackets for race ethnicity were changed
and no longer consistent with the previous years where there was a
multirace NH category which was no longer used.

Merged Race data:

race_data= 
  bind_rows(race_2011, race_2012, race_2013, race_2014, race_2015, race_2016, 
                           race_2017, race_2018, race_2019, race_2020)|> 
  select(-c(x,weighted_number,x95_percent_ci_weighted_number, weighted_numbere, x95_percent_c_id_weighted_number, x95_percent_c_id_percent, sample_sizec, sample_size,   prevalence_number , x95_percent_ci_percent, standard_error)) %>% 
 rename(year_name = year)

race_data

## # A tibble: 2,611 × 4
##    state race_ethnicity prevalence_percent year_name
##    <chr> <chr>                       <dbl>     <dbl>
##  1 AL    White NH                     12.4      2011
##  2 AL    Black NH                     10.4      2011
##  3 AL    Other NH                     10.3      2011
##  4 AL    Multirace NH                 25.1      2011
##  5 AL    Hispanic                     11.5      2011
##  6 AK    White NH                     13.2      2011
##  7 AK    Black NH                     26.4      2011
##  8 AK    Other NH                     11.7      2011
##  9 AK    Multirace NH                 18.6      2011
## 10 AK    Hispanic                     19.7      2011
## # ℹ 2,601 more rows
…
