…
final_df
```

    ## Simple feature collection with 2185 features and 7 fields
    ## Geometry type: MULTIPOLYGON
    ## Dimension:     XY
    ## Bounding box:  xmin: -2590847 ymin: -2608148 xmax: 2523581 ymax: 731407.9
    ## Projected CRS: NAD27 / US National Atlas Equal Area
    ## # A tibble: 2,185 × 8
    ##    state prevalence_percent avg_temp season  year temp_category full  
    ##    <chr>              <dbl>    <dbl> <chr>  <dbl> <chr>         <chr> 
    ##  1 AK                   8.2    1.83  Fall    2011 Mild          Alaska
    ##  2 AK                   8.2    2.12  Spring  2011 Mild          Alaska
    ##  3 AK                   8.2   11.9   Summer  2011 Mild          Alaska
    ##  4 AK                   8.2   -5.34  Winter  2011 Cold          Alaska
    ##  5 AK                   9      1.17  Fall    2012 Mild          Alaska
    ##  6 AK                   9      1.49  Spring  2012 Mild          Alaska
    ##  7 AK                   9     11.8   Summer  2012 Mild          Alaska
    ##  8 AK                   9     -8.34  Winter  2012 Cold          Alaska
    ##  9 AK                   9.3    3.55  Fall    2013 Mild          Alaska
    ## 10 AK                   9.3    0.749 Spring  2013 Mild          Alaska
    ## # ℹ 2,175 more rows
    ## # ℹ 1 more variable: geom <MULTIPOLYGON [m]>
…
cor_results
```

    ## Simple feature collection with 50 features and 3 fields
    ## Geometry type: MULTIPOLYGON
    ## Dimension:     XY
    ## Bounding box:  xmin: -2590847 ymin: -2608148 xmax: 2523581 ymax: 731407.9
    ## Projected CRS: NAD27 / US National Atlas Equal Area
    ## # A tibble: 50 × 4
    ##    state                                                   geom     corr p_value
    ##    <chr>                                     <MULTIPOLYGON [m]>    <dbl>   <dbl>
    ##  1 AK    (((-2396847 -2547721, -2393297 -2546391, -2391552 -25…  0.0578    0.709
    ##  2 AL    (((1093777 -1378535, 1093269 -1374223, 1092965 -13414…  0.0106    0.945
    ##  3 AR    (((483065.2 -927788.2, 506062 -926263.3, 531512.5 -92…  0.0142    0.927
    ##  4 AZ    (((-1388676 -1254584, -1389181 -1251856, -1384522 -12…  0.0613    0.693
    ##  5 CA    (((-1719946 -1090033, -1709611 -1090026, -1700882 -11… -0.00830   0.957
    ##  6 CO    (((-789538.7 -678773.8, -789538.2 -678769.5, -781696.… -0.0228    0.883
    ##  7 CT    (((2161733 -83737.52, 2177182 -65221.22, 2168999 -581…  0.0308    0.843
    ##  8 DE    (((2042506 -284367.3, 2043078 -280000.3, 2044959 -275…  0.0219    0.888
    ##  9 FL    (((1855611 -2064809, 1860157 -2054372, 1867238 -20477… -0.0717    0.660
    ## 10 GA    (((1311336 -999180.8, 1323127 -997255.3, 1331180 -995… -0.00238   0.988
    ## # ℹ 40 more rows
…
